.label L4162=$4162
.label L4160=$4160
.label D9BF6=$9bf6
.label D436F=$436f
.label D436C=$436c
.label L9617=$9617
.label L0AAF=$aaf
.label D4130=$4130
.label L3EA0=$3ea0
.label D4370=$4370
.label D4371=$4371
.label L0AB9=$ab9
.label L973D=$973d
.label L973C=$973c
.label L9F14=$9f14
.label D9BE9=$9be9
.label L0ABA=$aba
.label L416F=$416f
.label L092D=$92d
.label D413C=$413c
.label D4381=$4381
.label D4140=$4140
.label D861C=$861c
.label D4138=$4138
.label L9E00=$9e00
.label L3EB7=$3eb7
.label D4134=$4134
.label L962E=$962e
.label L9F28=$9f28
.label L0930=$930
.label D7F40=$7f40
.label L4384=$4384
.label L9AE9=$9ae9
.label D9CF2=$9cf2
.label L0CCE=$cce
.label DFC8=$fc8
.label DFC7=$fc7
.label L9AE3=$9ae3
.label L4388=$4388
.label L0900=$900
.label D4343=$4343
.label D4100=$4100
.label L438F=$438f
.label L9600=$9600
.label L9841=$9841
.label L9602=$9602
.label L4391=$4391
.label D4240=$4240
.label L9AF9=$9af9
.label L9F00=$9f00
.label L960D=$960d
.label D9BDC=$9bdc
.label D9DF0=$9df0
.label L9412=$9412
.label L9898=$9898
.label L9770=$9770
.label D4200=$4200
.label D9DE9=$9de9
.label L941A=$941a
.label L965C=$965c
.label intro_sprite_data=$c10e
.label L9D1B=$9d1b
.label L9D1D=$9d1d
.label D9AA2=$9aa2
.label DED9=$ed9
.label DED8=$ed8
.label DED7=$ed7
.label DED6=$ed6
.label L9420=$9420
.label DED5=$ed5
.label DED4=$ed4
.label L9F5C=$9f5c
.label DED3=$ed3
.label DFF4=$ff4
.label L9300=$9300
.label DED2=$ed2
.label DED1=$ed1
.label L9F65=$9f65
.label DED0=$ed0
.label D92C0=$92c0
.label DFF0=$ff0
.label D4210=$4210
.label DECF=$ecf
.label DECE=$ece
.label DECD=$ecd
.label L9C00=$9c00
.label L9D21=$9d21
.label L9874=$9874
.label L9876=$9876
.label L9999=$9999
.label L3EC4=$3ec4
.label L3DA0=$3da0
.label L9870=$9870
.label L963B=$963b
.label L963D=$963d
.label L9E16=$9e16
.label L9E15=$9e15
.label D9CAB=$9cab
.label L0947=$947
.label L9E1C=$9e1c
.label DDD8=$dd8
.label L9400=$9400
.label L9884=$9884
.label L9D02=$9d02
.label DCB0=$cb0
.label L9F46=$9f46
.label D93C0=$93c0
.label trainer_code=$c000
.label D94E3=$94e3
.label D93BE=$93be
.label L9D00=$9d00
.label L9E20=$9e20
.label D4D03=$4d03
.label D4D00=$4d00
.label DBA8=$ba8
.label L9330=$9330
.label D3D36=$3d36
.label L9575=$9575
.label DBA2=$ba2
.label L0E1A=$e1a
.label sm1=$c017
.label sm0=$c014
.label L9E70=$9e70
.label sm2=$c01a
.label L43C1=$43c1
.label L9589=$9589
.label L0D04=$d04
.label D3E67=$3e67
.label L0D00=$d00
.label L0F42=$f42
.label L0D02=$d02
.label L9581=$9581
.label DBB8=$bb8
.label L43CD=$43cd
.label L9F9E=$9f9e
.label DDF8=$df8
.label DBB0=$bb0
.label DCD1=$cd1
.label DDF2=$df2
.label L9D60=$9d60
.label L9A00=$9a00
.label D3F50=$3f50
.label D97F4=$97f4
.label DBC8=$bc8
.label L9E4C=$9e4c
.label L9C15=$9c15
.label DBC0=$bc0
.label L9C17=$9c17
.label D96E4=$96e4
.label D801=$801
.label L9F7C=$9f7c
.label DBD8=$bd8
.label L9323=$9323
.label D3F68=$3f68
.label L9443=$9443
.label L9F7D=$9f7d
.label L9F89=$9f89
.label DBD0=$bd0
.label L0E0B=$e0b
.label L9F80=$9f80
.label L43B5=$43b5
.label L9D40=$9d40
.label L968A=$968a
.label L9A2F=$9a2f
.label L99CD=$99cd
.label L0E57=$e57
.label L98AE=$98ae
.label L99CE=$99ce
.label D3E19=$3e19
.label L0C1A=$c1a
.label L9C6C=$9c6c
.label L0D3A=$d3a
.label L9499=$9499
.label L98B0=$98b0
.label DAC3=$ac3
.label L0C20=$c20
.label L0D40=$d40
.label D98EE=$98ee
.label L0B00=$b00
.label L0C27=$c27
.label DBFE=$bfe
.label L0C29=$c29
.label DBFA=$bfa
.label D9EA0=$9ea0
.label L0C25=$c25
.label L0D46=$d46
.label L9B5E=$9b5e
.label L9C7F=$9c7f
.label L9B5D=$9b5d
.label DBF8=$bf8
.label L9A3E=$9a3e
.label L0B0F=$b0f
.label DBF4=$bf4
.label L0C30=$c30
.label L0D53=$d53
.label L938D=$938d
.label L9B2F=$9b2f
.label L9357=$9357
.label L0D18=$d18
.label L0D14=$d14
.label L0E3A=$e3a
.label L9354=$9354
.label hero_princess_sprites_backup=$b400
.label L9598=$9598
.label L43DA=$43da
.label L9476=$9476
.label L9D6E=$9d6e
.label D939C=$939c
.label intro_text=$c0aa
.label L9C57=$9c57
.label L9D78=$9d78
.label L99B3=$99b3
.label D4708=$4708
.label L0C00=$c00
.label L9D74=$9d74
.label L9B35=$9b35
.label L9C56=$9c56
.label L9B3F=$9b3f
.label L0C02=$c02
.label MusicData=$b000
.label L0F66=$f66
.label L9E9B=$9e9b
.label L9360=$9360
.label L9A1D=$9a1d
.label L0C0E=$c0e
.label D9B86=$9b86
.label L9490=$9490
.label L99BF=$99bf
.label L9A22=$9a22
.label L9B43=$9b43
.label D40A8=$40a8
.label L3E06=$3e06
.label L98ED=$98ed
.label D40A4=$40a4
.label L9B92=$9b92
.label L9A6C=$9a6c
.label D857=$857
.label L0B3C=$b3c
.label L9A6D=$9a6d
.label start_bitmap_mem=$6000
.label L9FAC=$9fac
.label L9FAD=$9fad
.label L3E0C=$3e0c
.label L3E12=$3e12
.label D41C0=$41c0
.label D40A0=$40a0
.label L9A73=$9a73
.label L9A75=$9a75
.label L0B40=$b40
.label D9C8C=$9c8c
.label L3E18=$3e18
.label L96BE=$96be
.label L09C0=$9c0
.label L96C6=$96c6
.label L3D00=$3d00
.label L3E20=$3e20
.label L97E0=$97e0
.label D99DD=$99dd
.label L96C0=$96c0
.label D9D7C=$9d7c
.label D9E9C=$9e9c
.label D43E4=$43e4
.label L0C37=$c37
.label L98CF=$98cf
.label L0C3C=$c3c
.label L9A4B=$9a4b
.label L9C8D=$9c8d
.label L9B6E=$9b6e
.label D991=$991
.label L0A00=$a00
.label L0C42=$c42
.label D8026=$8026
.label D9599=$9599
.label L9A52=$9a52
.label L0E83=$e83
.label D42C0=$42c0
.label D9358=$9358
.label L0C40=$c40
.label L0B28=$b28
.label D43F7=$43f7
.label L98DD=$98dd
.label D43F8=$43f8
.label D43F5=$43f5
.label D43F6=$43f6
.label L0D69=$d69
.label D43F3=$43f3
.label D43F4=$43f4
.label L0C4A=$c4a
.label L98D9=$98d9
.label D948C=$948c
.label L0B32=$b32
.label D43F1=$43f1
.label L3E00=$3e00
.label D43F2=$43f2
.label L0A12=$a12
.label D43F0=$43f0
.label D42A0=$42a0
.label DF4E=$f4e
.label L0B7D=$b7d
.label D8C60=$8c60
.label L0A60=$a60
.label loop=$c010
.label L0A62=$a62
.label L3E52=$3e52
.label L0B8B=$b8b
.label L3E5A=$3e5a
.label L9DBC=$9dbc
.label D43CB=$43cb
.label D43CC=$43cc
.label L93A0=$93a0
.label L9FC2=$9fc2
.label D3CCC=$3ccc
.label L9A90=$9a90
.label L3E28=$3e28
.label L0D9B=$d9b
.label L09DB=$9db
.label D979E=$979e
.label D3CC0=$3cc0
.label L0B64=$b64
.label L9A97=$9a97
.label L96D2=$96d2
.label L97F3=$97f3
.label D9E6A=$9e6a
.label L3E38=$3e38
.label D9574=$9574
.label L09E3=$9e3
.label L9A9F=$9a9f
.label L3E3C=$3e3c
.label L9FD0=$9fd0
.label D44CD=$44cd
.label D9D41=$9d41
.label L0C98=$c98
.label L94A1=$94a1
.label D4090=$4090
.label L0EAF=$eaf
.label L9CC7=$9cc7
.label D9421=$9421
.label D9422=$9422
.label D4098=$4098
.label L9BA2=$9ba2
.label D47FE=$47fe
.label D47FF=$47ff
.label D47FC=$47fc
.label D47FD=$47fd
.label D47FA=$47fa
.label D47FB=$47fb
.label D4088=$4088
.label L4327=$4327
.label L432F=$432f
.label L3E95=$3e95
.label D408C=$408c
.label L3E94=$3e94
.label L9900=$9900
.label L9BB9=$9bb9
.label L0DA0=$da0
.label D9D26=$9d26
.label L4330=$4330
.label L9CD4=$9cd4
.label L4338=$4338
.label D9423=$9423
.label D9666=$9666
.label D409E=$409e
.label D409C=$409c
.label L9BBB=$9bbb
.label L9CDC=$9cdc
.label D45A2=$45a2
.label D47E0=$47e0
.label L9DC9=$9dc9
.label D975C=$975c
.label D4074=$4074
.label L4300=$4300
.label D4070=$4070
.label L0FB4=$fb4
.label D7F90=$7f90
.label L0A81=$a81
.label D878B=$878b
.label L0FB3=$fb3
.label D878C=$878c
.label D9998=$9998
.label L430A=$430a
.label D9997=$9997
.label D3DA6=$3da6
.label L0A83=$a83
.label DD68=$d68
.label L9DD8=$9dd8
.label D9893=$9893
.label D4087=$4087
.label L4312=$4312
.label D47F9=$47f9
.label L9CB0=$9cb0
.label D4080=$4080
.label D47F8=$47f8
.label L9CB2=$9cb2
.label L0FC6=$fc6
.label L9EFF=$9eff
.label L9CBF=$9cbf
.label D3ED1=$3ed1
.label D4078=$4078
.label D407E=$407e
.label D407F=$407f
.label DC58=$c58
.label L9934=$9934
.label L9936=$9936
.label L9AC0=$9ac0
.label L980E=$980e
.label L9BE0=$9be0
.label L436B=$436b
.label D3FC0=$3fc0
.label D4048=$4048
.label L0CB3=$cb3
.label L981E=$981e
.label L9BF0=$9bf0
.label D8A0=$8a0
.label L4372=$4372
.label L9700=$9700
.label L0BA0=$ba0
.label D4063=$4063
.label D4060=$4060
.label L4374=$4374
.label L0DE6=$de6
.label DD9C=$d9c
.label L0DE8=$de8
.label D4176=$4176
.label D9864=$9864
.label D46AC=$46ac
.label L9CE9=$9ce9
.label L0DAA=$daa
.label D4030=$4030
.label L4344=$4344
.label D4270=$4270
.label L0DB6=$db6
.label D9AEA=$9aea
.label L0DB8=$db8
.label L9918=$9918
.label D9E4=$9e4
.label L0EDA=$eda
.label L9800=$9800
.label L0EDF=$edf
.label L0DC2=$dc2
.label D4040=$4040
.label D996F=$996f
.label L435A=$435a
.label L980C=$980c
.label L0DCA=$dca
